<?xml version="1.0" encoding="UTF-8"?>
<kml xmlns="http://www.opengis.net/kml/2.2" xmlns:gx="http://www.google.com/kml/ext/2.2" xmlns:kml="http://www.opengis.net/kml/2.2" xmlns:atom="http://www.w3.org/2005/Atom">
<Document>
	<name>gauges.kml</name>
	<StyleMap id="msn_ylw-pushpin">
		<Pair>
			<key>normal</key>
			<styleUrl>#sn_ylw-pushpin3</styleUrl>
		</Pair>
		<Pair>
			<key>highlight</key>
			<styleUrl>#sh_ylw-pushpin3</styleUrl>
		</Pair>
	</StyleMap>
	<Style id="sn_ylw-pushpin">
		<IconStyle>
			<scale>1.1</scale>
			<Icon>
				<href>http://maps.google.com/mapfiles/kml/pushpin/ylw-pushpin.png</href>
			</Icon>
			<hotSpot x="20" y="2" xunits="pixels" yunits="pixels"/>
		</IconStyle>
	</Style>
	<StyleMap id="msn_ylw-pushpin0">
		<Pair>
			<key>normal</key>
			<styleUrl>#sn_ylw-pushpin1</styleUrl>
		</Pair>
		<Pair>
			<key>highlight</key>
			<styleUrl>#sh_ylw-pushpin0</styleUrl>
		</Pair>
	</StyleMap>
	<Style id="sn_ylw-pushpin0">
		<IconStyle>
			<scale>1.1</scale>
			<Icon>
				<href>http://maps.google.com/mapfiles/kml/pushpin/ylw-pushpin.png</href>
			</Icon>
			<hotSpot x="20" y="2" xunits="pixels" yunits="pixels"/>
		</IconStyle>
	</Style>
	<Style id="sh_ylw-pushpin">
		<IconStyle>
			<scale>1.3</scale>
			<Icon>
				<href>http://maps.google.com/mapfiles/kml/pushpin/ylw-pushpin.png</href>
			</Icon>
			<hotSpot x="20" y="2" xunits="pixels" yunits="pixels"/>
		</IconStyle>
	</Style>
	<Style id="sn_ylw-pushpin1">
		<IconStyle>
			<scale>1.1</scale>
			<Icon>
				<href>http://maps.google.com/mapfiles/kml/pushpin/ylw-pushpin.png</href>
			</Icon>
			<hotSpot x="20" y="2" xunits="pixels" yunits="pixels"/>
		</IconStyle>
	</Style>
	<StyleMap id="msn_ylw-pushpin1">
		<Pair>
			<key>normal</key>
			<styleUrl>#sn_ylw-pushpin</styleUrl>
		</Pair>
		<Pair>
			<key>highlight</key>
			<styleUrl>#sh_ylw-pushpin2</styleUrl>
		</Pair>
	</StyleMap>
	<StyleMap id="msn_ylw-pushpin2">
		<Pair>
			<key>normal</key>
			<styleUrl>#sn_ylw-pushpin2</styleUrl>
		</Pair>
		<Pair>
			<key>highlight</key>
			<styleUrl>#sh_ylw-pushpin1</styleUrl>
		</Pair>
	</StyleMap>
	<Style id="sh_ylw-pushpin0">
		<IconStyle>
			<scale>1.3</scale>
			<Icon>
				<href>http://maps.google.com/mapfiles/kml/pushpin/ylw-pushpin.png</href>
			</Icon>
			<hotSpot x="20" y="2" xunits="pixels" yunits="pixels"/>
		</IconStyle>
	</Style>
	<Style id="sh_ylw-pushpin1">
		<IconStyle>
			<scale>1.3</scale>
			<Icon>
				<href>http://maps.google.com/mapfiles/kml/pushpin/ylw-pushpin.png</href>
			</Icon>
			<hotSpot x="20" y="2" xunits="pixels" yunits="pixels"/>
		</IconStyle>
	</Style>
	<Style id="sn_ylw-pushpin2">
		<IconStyle>
			<scale>1.1</scale>
			<Icon>
				<href>http://maps.google.com/mapfiles/kml/pushpin/ylw-pushpin.png</href>
			</Icon>
			<hotSpot x="20" y="2" xunits="pixels" yunits="pixels"/>
		</IconStyle>
	</Style>
	<Style id="sh_ylw-pushpin2">
		<IconStyle>
			<scale>1.3</scale>
			<Icon>
				<href>http://maps.google.com/mapfiles/kml/pushpin/ylw-pushpin.png</href>
			</Icon>
			<hotSpot x="20" y="2" xunits="pixels" yunits="pixels"/>
		</IconStyle>
	</Style>
	<Style id="sn_ylw-pushpin3">
		<IconStyle>
			<scale>1.1</scale>
			<Icon>
				<href>http://maps.google.com/mapfiles/kml/pushpin/ylw-pushpin.png</href>
			</Icon>
			<hotSpot x="20" y="2" xunits="pixels" yunits="pixels"/>
		</IconStyle>
	</Style>
	<Style id="sh_ylw-pushpin3">
		<IconStyle>
			<scale>1.3</scale>
			<Icon>
				<href>http://maps.google.com/mapfiles/kml/pushpin/ylw-pushpin.png</href>
			</Icon>
			<hotSpot x="20" y="2" xunits="pixels" yunits="pixels"/>
		</IconStyle>
	</Style>
	<StyleMap id="msn_ylw-pushpin3">
		<Pair>
			<key>normal</key>
			<styleUrl>#sn_ylw-pushpin0</styleUrl>
		</Pair>
		<Pair>
			<key>highlight</key>
			<styleUrl>#sh_ylw-pushpin</styleUrl>
		</Pair>
	</StyleMap>
	<Folder>
		<name>gauges</name>
		<open>1</open>
		<Placemark>
			<name>Cairns Airport</name>
			<description>ELEV = 0</description>
			<LookAt>
				<longitude>145.7838415266284</longitude>
				<latitude>-16.89289620926981</latitude>
				<altitude>0</altitude>
				<range>11073.40618391583</range>
				<tilt>0</tilt>
				<heading>4.932493932654978e-10</heading>
				<altitudeMode>relativeToGround</altitudeMode>
			</LookAt>
			<styleUrl>#msn_ylw-pushpin</styleUrl>
			<Point>
				<coordinates>145.7508927123564,-16.88070651620278,0</coordinates>
			</Point>
		</Placemark>
		<Placemark>
			<name>Cairns</name>
			<description>ELEV = 0</description>
			<LookAt>
				<longitude>145.746896426121</longitude>
				<latitude>-16.90783980081391</latitude>
				<altitude>0</altitude>
				<range>9232.649414607853</range>
				<tilt>0</tilt>
				<heading>0.01074925732064265</heading>
				<altitudeMode>relativeToGround</altitudeMode>
			</LookAt>
			<styleUrl>#msn_ylw-pushpin3</styleUrl>
			<Point>
				<coordinates>145.7553252538034,-16.92495883480624,0</coordinates>
			</Point>
		</Placemark>
		<Placemark>
			<name>Cairns Headland</name>
			<description>ELEV = 0</description>
			<LookAt>
				<longitude>145.8152539240635</longitude>
				<latitude>-16.84722723965956</latitude>
				<altitude>0</altitude>
				<range>27894.30807078821</range>
				<tilt>0</tilt>
				<heading>-0.009002770814277861</heading>
				<altitudeMode>relativeToGround</altitudeMode>
			</LookAt>
			<styleUrl>#msn_ylw-pushpin0</styleUrl>
			<Point>
				<coordinates>145.9411521832806,-16.87822710329083,0</coordinates>
			</Point>
		</Placemark>
		<Placemark>
			<name>Elford Reef</name>
			<description>ELEV = 0</description>
			<LookAt>
				<longitude>146.3128613739561</longitude>
				<latitude>-16.85344226195746</latitude>
				<altitude>0</altitude>
				<range>18465.82632178671</range>
				<tilt>0</tilt>
				<heading>-0.1536685007580041</heading>
				<altitudeMode>relativeToGround</altitudeMode>
			</LookAt>
			<styleUrl>#msn_ylw-pushpin2</styleUrl>
			<Point>
				<coordinates>146.3489042409199,-16.85557590344959,0</coordinates>
			</Point>
		</Placemark>
		<Placemark>
			<name>Trinity Beach</name>
			<description>ELEV = 0</description>
			<LookAt>
				<longitude>145.6998765389867</longitude>
				<latitude>-16.79315438545865</latitude>
				<altitude>0</altitude>
				<range>2194.322742122079</range>
				<tilt>0</tilt>
				<heading>0.02442759398609432</heading>
				<altitudeMode>relativeToGround</altitudeMode>
			</LookAt>
			<styleUrl>#msn_ylw-pushpin1</styleUrl>
			<Point>
				<coordinates>145.7012833804594,-16.78805834615472,0</coordinates>
			</Point>
		</Placemark>
	</Folder>
</Document>
</kml>
